;Belfast TMA 1 E 2000-FL105
N054.28.46.319:W006.15.33.933:Airspace Bases:2000
N054.48.16.720:W006.24.30.020:Airspace Bases:2000
N054.48.13.028:W005.53.40.227:Airspace Bases:2000
;Belfast TMA 2 E 3500-FL105
N054.16.50.048:W005.54.33.247:Airspace Bases:3500
N054.20.57.420:W006.00.26.710:Airspace Bases:3500
N054.47.32.414:W005.26.04.839:Airspace Bases:3500
N054.51.13.941:W005.31.34.739:Airspace Bases:3500
N054.52.31.476:W005.41.53.300:Airspace Bases:3500

;Clacton CTA 1 A FL155-FL195
N052.21.59.937:W000.28.11.523:Airspace Bases:FL155
N052.20.43.695:W000.10.32.744:Airspace Bases:FL155
;Clacton CTA 2 A FL105-FL195
N052.09.57.055:E001.24.27.356:Airspace Bases:FL105
;Clacton CTA 3 A FL85-FL195
N052.02.12.908:E001.05.27.093:Airspace Bases:FL85
;Clacton CTA 4 A FL165-FL195
N052.17.48.570:E001.41.18.311:Airspace Bases:FL165
;Clacton CTA 5 A FL85-FL195
N051.59.16.090:E001.57.45.756:Airspace Bases:FL85
;Clacton CTA 6 A FL135-FL195
N052.07.37.074:E001.52.40.118:Airspace Bases:FL135
;Clacton CTA 7 A FL65-FL195
N051.41.49.974:E001.44.00.528:Airspace Bases:FL65
;Clacton CTA 9 A FL105-FL195
N051.25.03.581:E001.48.54.239:Airspace Bases:FL105

;Daventry CTA 1 A 4500-FL195
N053.13.49.496:W001.54.51.450:Airspace Bases:4500
;Daventry CTA 2 A 5500-FL195
N053.10.01.106:W001.49.10.547:Airspace Bases:5500
;Daventry CTA 3 A 5500-FL195
N053.05.35.879:W001.41.43.846:Airspace Bases:5500
N052.31.05.633:W001.15.05.126:Airspace Bases:5500
;Daventry CTA 4 A 5500-FL195
N052.08.37.395:W001.10.11.244:Airspace Bases:5500
;Daventry CTA 5 A FL65-FL195
N052.04.26.903:W001.00.35.234:Airspace Bases:FL65
;Daventry CTA 6 A FL85-FL195
N051.45.17.585:W001.04.30.340:Airspace Bases:FL85
;Daventry CTA 7 A 4500-FL195
N053.02.24.326:W002.17.46.820:Airspace Bases:4500
;Daventry CTA 8 A 5500-FL195
N052.52.12.830:W002.06.25.013:Airspace Bases:5500
;Daventry CTA 9 A 4500-FL195
N052.39.19.251:W001.35.51.187:Airspace Bases:4500
N052.14.45.766:W001.15.16.881:Airspace Bases:4500
;Daventry CTA 10 A FL65-FL195
N053.17.07.035:W001.43.25.970::Airspace Bases:FL65
;Daventry CTA 12 A FL105-FL195
N052.21.36.960:W000.40.44.276:Airspace Bases:FL105
;Daventry CTA 13 A FL75-FL195
N052.14.14.915:W000.48.22.733:Airspace Bases:FL75
;Daventry CTA 14 A FL85-FL195
N051.51.31.942:W001.20.54.111:Airspace Bases:FL85
;Daventry CTA 15 A FL105-FL195
N051.54.06.658:W001.41.28.417:Airspace Bases:FL105
;Daventry CTA 16 A FL75-FL195
N052.04.18.154:W001.32.04.163:Airspace Bases:FL75
;Daventry CTA 17 A FL65-FL195
N052.07.00.237:W001.34.48.737:Airspace Bases:FL65
;Daventry CTA 18 A 5500-FL195
N052.09.27.586:W001.37.33.311:Airspace Bases:5500
;Daventry CTA 19 A FL145-FL195
N052.09.27.586:W001.53.37.245:Airspace Bases:FL145
N052.36.28.419:W002.23.47.560:Airspace Bases:FL145
;Daventry CTA 20 A FL85-FL195
N053.01.31.373:W002.41.25.537:Airspace Bases:FL85
N052.45.40.975:W002.21.02.986:Airspace Bases:FL85

;London TMA 1 A 2500-FL195
N051.42.16.745:W000.17.15.213:Airspace Bases:2500
N051.20.58.349:E000.17.50.841:Airspace Bases:2500
N050.58.30.726:W000.08.39.745:Airspace Bases:2500
N051.16.26.056:W000.26.20.136:Airspace Bases:2500
N051.28.53.709:W000.50.45.537:Airspace Bases:2500
;London TMA 2 A 2500-FL195
N051.48.44.417:E000.31.50.317:Airspace Bases:2500
;London TMA 3 A 3500-FL195
N051.43.39.818:W000.46.27.803:Airspace Bases:3500
N052.00.39.765:E000.36.30.142:Airspace Bases:3500
N051.42.12.130:E000.23.36.941:Airspace Bases:3500
N051.12.12.223:E000.34.02.866:Airspace Bases:3500
;London TMA 4 A 3500-FL195
N051.12.30.683:W000.43.08.979:Airspace Bases:3500
;London TMA 5 A 4500-FL195
N051.39.44.445:W000.53.42.268:Airspace Bases:4500
;London TMA 6 A 4500-FL195
N052.03.16.680:W000.09.01.836:Airspace Bases:4500
N052.04.02.831:E000.03.07.182:Airspace Bases:4500
;London TMA 7 A 4500-FL195
N051.53.21.326:E000.45.35.065:Airspace Bases:4500
;London TMA 8 A 5500-FL195
N051.48.53.792:E001.12.52.711:Airspace Bases:5500
N051.15.00.243:E000.59.50.304:Airspace Bases:5500
N050.54.48.767:E000.40.16.695:Airspace Bases:5500
N050.46.31.196:W000.04.12.691:Airspace Bases:5500
;London TMA 9 A 5500-FL195
N052.08.43.634:W000.02.29.137:Airspace Bases:5500
;London TMA 10 A 5500-FL195
N051.37.07.097:W001.02.42.014:Airspace Bases:5500
;London TMA 11 A 4500-FL195
N051.29.25.583:W001.07.06.651:Airspace Bases:4500
;London TMA 12 A 5000-FL195
N051.21.51.279:W001.03.16.531:Airspace Bases:5000
;London TMA 13 A 5500-FL195
N051.11.45.541:W001.02.19.002:Airspace Bases:5500
N051.00.13.269:W000.59.26.412:Airspace Bases:5500
;London TMA 14 A 5000-FL195
N050.56.35.363:W000.35.13.075:Airspace Bases:5000
;London TMA 16 A 5500-FL195
N052.04.32.506:E000.43.27.131:Airspace Bases:5500
;London TMA 17 A FL75-FL195
N052.01.28.196:E000.52.52.673:Airspace Bases:FL75
;London TMA 18 A FL75-FL195
N052.08.52.431:E000.34.50.603:Airspace Bases:FL75
;London TMA 19 A 5500-FL195
N051.54.40.721:W000.58.02.508:Airspace Bases:5500
N052.05.34.226:W000.25.32.568:Airspace Bases:5500
;London TMA 20 A 4500-FL195
N050.54.18.754:W000.04.55.445:Airspace Bases:4500
;London TMA 21 A FL65-FL195
N050.51.47.378:W000.44.11.869:Airspace Bases:FL65
;London TMA 23 A 5500-FL195
N051.30.18.643:W001.20.07.996:Airspace Bases:5500
;London TMA 24 A 4500-FL195
N051.01.42.731:W000.49.09.367:Airspace Bases:4500

;Manchester TMA 1 A 3500-FL195
N053.39.44.693:W002.15.37.349:Airspace Bases:3500
;Manchester TMA 2 A FL55-FL145
N053.35.19.466:W002.55.35.428:Airspace Bases:FL55

;North Sea CTA 2 A FL175-FL195
N053.26.28.341:E003.17.02.976:Airspace Bases:FL175
;North Sea CTA 3 A FL175-FL195
N052.58.28.569:E002.50.59.522:Airspace Bases:FL175

;Portsmouth CTA 1 A FL65-FL195
N050.45.37.214:W001.03.40.087:Airspace Bases:FL65
;Portsmouth CTA 2 A FL75-FL195
N050.39.16.962:W001.05.51.841:Airspace Bases:FL75

;Scottish TMA 1 D 4500-FL195
N055.38.12.722:W004.01.25.462:Airspace Bases:4500
;Scottish TMA 2 D 5500-FL195
N055.14.08.707:W004.33.45.085:Airspace Bases:5500
N055.29.22.267:W003.34.58.497:Airspace Bases:5500
;Scottish TMA 4 D 5500-FL195
N055.33.25.392:W002.55.12.173:Airspace Bases:5500
;Scottish TMA 5 E 3000-6000
N055.48.02.115:W004.55.29.922:Airspace Bases:3000
;Scottish TMA 6 E 4000-6000
N056.07.26.168:W004.17.52.906:Airspace Bases:4000
N056.10.30.354:W003.45.21.528:Airspace Bases:4000

;Southern CTA 1 C FL195-FL245
N052.18.03.986:E002.13.04.185:Airspace Bases:FL195
;Southern CTA 2 C FL195-FL245
N052.15.48.064:W000.01.05.227:Airspace Bases:FL195
N052.18.20.626:E000.40.12.485:Airspace Bases:FL195
;Southern CTA 3 C FL215-FL245
N052.27.52.417:E002.09.04.861:Airspace Bases:FL195

;Strangford CTA 1 D FL75-FL195
N054.14.29.286:W005.42.44.847:Airspace Bases:FL75
N054.07.33.923:W005.20.39.358:Airspace Bases:FL75
N054.23.20.028:W005.07.09.338:Airspace Bases:FL75
N054.14.11.979:W004.50.44.426:Airspace Bases:FL75
;Strangford CTA 2 D 3500-FL195
N054.34.23.455:W005.26.01.526:Airspace Bases:3500

;Worthing CTA 1 A FL65-FL195
N051.07.43.862:E001.21.32.396:Airspace Bases:FL65
;Worthing CTA 2 A FL75-FL195
N050.28.19.354:E000.15.13.420:Airspace Bases:FL75
N050.45.49.614:E001.07.07.047:Airspace Bases:FL75
;Worthing CTA 3 A FL75-FL195
N051.10.53.695:E001.45.30.805:Airspace Bases:FL75
;Worthing CTA 5 A FL105-FL195
N051.17.54.606:E001.49.31.348:Airspace Bases:FL105

;Y905 + TMZ E FL45-FL195
N059.31.19.843:W001.23.52.266:Airspace Bases:FL45
;Y905 + TMZ E FL75-FL195
N059.25.54.497:W001.24.59.976:Airspace Bases:FL75
;Y905 + TMZ E FL105-FL195
N057.58.42.686:W001.44.29.282:Airspace Bases:FL105
N058.51.42.765:W001.31.51.617:Airspace Bases:FL105
;N560 + TMZ E FL75-FL195
N058.08.47.045:W003.48.28.178:Airspace Bases:FL75
N058.43.04.743:W002.58.20.476:Airspace Bases:FL75
;Y904 + TMZ FL75-FL155
N057.59.40.244:W002.46.05.771:Airspace Bases:FL75
;Y906 + TMZ E FL55-FL195
N058.03.04.230:W005.41.16.655:Airspace Bases:FL55
;N560/Y906 + TMZ E FL95-FL195
N057.38.01.276:W004.12.43.263:Airspace Bases:FL95
;N560 + TMZ E FL105-FL195
N057.00.23.851:W004.10.00.342:Airspace Bases:FL105
;N560 + TMZ E FL125-FL195
N056.34.29.786:W004.16.07.695:Airspace Bases:FL125
;N580 + TMZ E FL115-FL195
N056.18.04.393:W006.04.56.474:Airspace Bases:FL115
;N580 + TMZ E 5500-FL195
N056.05.01.604:W005.17.25.816:Airspace Bases:5500
;N562 + TMZ E FL105-FL195
N055.22.53.529:W005.18.31.050:Airspace Bases:FL105
;P600 + TMZ E FL105-FL195
N057.34.21.404:W001.05.30.162:Airspace Bases:FL105
;P600/Y904/Y905 + TMZ E 4500-FL195
N057.27.51.852:W001.49.11.960:Airspace Bases:4500
;P600 A FL55-FL195
N056.16.51.419:W003.45.28.021:Airspace Bases:FL55
;P600 A FL85-FL195
N056.22.45.055:W003.29.40.074:Airspace Bases:FL85
;P600 A FL105-FL195
N056.36.25.491:W003.09.43.856:Airspace Bases:FL105
;P600 A FL85-FL195
N056.50.10.642:W002.52.55.722:Airspace Bases:FL85
;P600 A FL55-FL195
N056.55.45.418:W002.45.46.889:Airspace Bases:FL55
;T256/L612/N864/N601 A FL85-FL195
N055.04.26.680:W003.49.28.389:Airspace Bases:FL85
N055.14.23.442:W003.14.00.681:Airspace Bases:FL85
;T256 A FL135-FL195
N054.40.15.298:W003.34.34.986:Airspace Bases:FL135
;T256/N864/L612/N57/N601 A FL125-FL195 (FL95-FL125 not in use)
N054.54.22.552:W003.14.59.457:Airspace Bases:FL125
N054.24.02.798:W002.45.36.163:Airspace Bases:FL125
;L602 A FL115-FL195
N055.24.42.305:W002.49.54.780:Airspace Bases:FL115
;L602 A FL155-FL195
N055.19.03.404:W002.33.50.846:Airspace Bases:FL155
;N601 A FL155-FL195
N055.06.02.457:W002.52.39.354:Airspace Bases:FL155
;N601 D FL165-FL195 CDR
N055.09.21.377:W002.40.07.015:Airspace Bases:FL165*C
N055.03.35.108:W002.36.47.175:Airspace Bases:FL195
;N601/P17/P18 A FL95-FL195
N054.02.55.602:W002.08.46.168:Airspace Bases:FL95
;P16/P17/P18/Y250 A FL125-FL195
N054.13.51.302:W001.57.36.116:Airspace Bases:FL125
;P18 D 4500-FL195
N056.52.46.959:W002.16.54.341:Airspace Bases:4500
N056.52.25.835:W002.05.40.245:Airspace Bases:4500
N056.55.32.932:W001.54.26.150:Airspace Bases:4500
;P18 D FL75-FL195
N056.47.18.030:W002.13.56.187:Airspace Bases:FL75
N056.44.17.316:W002.03.12.612:Airspace Bases:FL75
N056.49.12.702:W001.54.21.335:Airspace Bases:FL75
;P18 D FL115-FL195
N056.34.41.736:W001.58.55.465:Airspace Bases:FL115
;P18 D FL135-FL195
N056.20.52.901:W001.54.38.318:Airspace Bases:FL135
;P18 D FL155-FL195
N055.57.05.463:W001.44.50.553:Airspace Bases:FL155
N055.21.24.306:W001.35.21.156:Airspace Bases:FL155
;P18 D FL75-FL125
N054.34.51.132:W001.46.37.820:Airspace Bases:FL75
;P18 D FL105-FL125
N054.28.50.128:W001.53.05.745:Airspace Bases:FL105
;N57 A FL125-FL195
N054.09.55.545:W002.37.34.196:Airspace Bases:FL125
;N57 A FL75-FL195
N054.03.10.337:W002.29.20.474:Airspace Bases:FL75
;N57 A FL55-FL195
N053.55.48.291:W002.23.04.305:Airspace Bases:FL55
;N57 A 4500-FL195
N053.48.40.981:W002.18.57.443:Airspace Bases:4500
;L612 A FL145-FL195
N054.06.51.359:W002.51.40.577:Airspace Bases:FL145
;L612 A FL95-FL195
N053.58.00.905:W002.43.15.100:Airspace Bases:FL95
;L612 A FL65-FL195
N053.48.55.716:W002.39.08.239:Airspace Bases:FL65
;L70 C FL85-FL195
N053.39.09.318:W003.24.05.425:Airspace Bases:FL85
N053.36.46.341:W003.10.52.596:Airspace Bases:FL85
N053.38.40.178:W002.56.30.114:Airspace Bases:FL85
;L15 A FL145-FL195
N053.16.05.996:W003.24.58.965:Airspace Bases:FL145
;Y70/L17/L989 A FL175-FL195
N053.08.54.799:E001.14.35.918:Airspace Bases:FL175
;Y70/L26/L603 A FL155-FL195
N053.14.55.803:W000.15.43.272:Airspace Bases:FL155
;Y70 A FL125-FL195
N053.25.51.504:W000.27.52.100:Airspace Bases:FL125
;Y70/L26/L603 A FL105-FL195
N053.24.52.564:W000.45.06.566:Airspace Bases:FL105
;L975 A 3500-FL195
N053.32.44.079:W001.41.08.580:Airspace Bases:3500
;L975 A FL55-FL195
N053.34.05.121:W001.28.36.241:Airspace Bases:FL55
;N34 D FL55-FL195
N054.21.49.109:W006.14.17.349:Airspace Bases:FL55
;N34/P600 D FL75-FL195
N054.09.34.378:W006.07.48.540:Airspace Bases:FL75
;P620 D FL95-FL195
N054.02.11.324:W005.41.53.300:Airspace Bases:FL95
;Y911 E + TMZ FL75-FL195
N053.52.35.354:W005.14.06.130:Airspace Bases:FL75
;Y911/L70 E/C FL75-FL195
N053.43.14.152:W005.26.28.404:Airspace Bases:FL75
;P6 D FL75-FL195
N054.22.11.262:W004.52.30.097:Airspace Bases:FL75
;P6 D FL135-FL195
N054.15.32.513:W004.41.00.843:Airspace Bases:FL135
;P6 A FL135-FL195
N054.14.44.516:W004.31.47.084:Airspace Bases:FL135
;L10 D FL45-FL195
N054.19.02.964:W005.22.03.306:Airspace Bases:FL45
;L10 A FL45-FL195
N053.48.20.136:W004.06.42.655:Airspace Bases:FL45
;L15 D FL145-FL195
N053.59.46.639:W005.06.14.109:Airspace Bases:FL145
;P620 D FL95-FL195
N054.39.54.189:W005.10.54.633:Airspace Bases:FL95
;P600 D FL55-FL195
N054.58.47.669:W005.04.31.715:Airspace Bases:FL55
;P600 D FL125-FL195
N055.07.46.718:W004.41.39.098:Airspace Bases:FL125
;L70 C FL75-FL245
N053.39.39.606:W005.16.59.879:Airspace Bases:FL75
;L975 C FL35-FL245
N053.28.53.486:W005.20.31.957:Airspace Bases:FL35
;L70/L975 C FL115-FL245
N053.33.48.855:W004.59.13.597:Airspace Bases:FL115
;L15/L70/L975 A FL145-FL195
N053.48.23.887:W004.34.34.942:Airspace Bases:FL145
N053.33.02.099:W004.34.32.416:Airspace Bases:FL145
;L70/L975 A FL115-FL195
N053.32.03.026:W004.08.13.612:Airspace Bases:FL115
;L10/L70/L975 FL75-FL195
N053.42.14.675:W003.50.53.420:Airspace Bases:FL75
N053.28.28.883:W003.49.46.092:Airspace Bases:FL75
;L10 A FL45-FL195
N053.28.42.859:W003.31.43.439:Airspace Bases:FL45
;Y124 C FL115-FL245
N053.16.20.294:W005.16.36.315:Airspace Bases:FL115
;Y124 C FL145-FL245
N053.16.46.880:W004.57.15.565:Airspace Bases:FL145


;N601 C FL115/FL145-FL195 CDR
N052.20.11.982:W000.26.54.780:Airspace Bases:FL115*C
N052.31.46.790:W000.37.10.606:Airspace Bases:FL145*C
N052.38.51.233:W000.44.38.714:Airspace Bases:FL195
N053.11.43.535:W001.13.16.900:Airspace Bases:FL195

;N160 A FL175-FL195
N051.07.08.368:W007.22.58.000:Airspace Bases:FL175
;P2/L9/N546/M17 A FL145-FL195
N051.54.58.412:W006.12.00.788:Airspace Bases:FL145
N052.07.57.218:W005.22.32.247:Airspace Bases:FL145
N051.54.15.145:W004.26.44.008:Airspace Bases:FL145
;L9 A FL125-FL195
N051.49.33.909:W003.56.03.052:Airspace Bases:FL125
;L9 A FL95-FL195
N051.48.07.375:W003.45.41.730:Airspace Bases:FL95
;L9 A FL75-FL195
N051.46.04.786:W003.31.18.781:Airspace Bases:FL75
N051.44.31.040:W002.58.08.248:Airspace Bases:FL75
N051.36.49.526:W002.21.53.619:Airspace Bases:FL75
;L9 A FL65-FL195
N051.32.58.768:W001.44.41.459:Airspace Bases:FL65
;Y3 A FL105-FL195
N051.24.22.723:W001.49.54.455:Airspace Bases:FL105

;N864 A FL105-FL195
N056.27.46.825:W003.03.05.116:Airspace Bases:FL105
;N864 A FL85-FL195
N056.17.48.000:W003.09.43.856:Airspace Bases:FL85
;N864 A FL65-FL195
N056.09.14.049:W003.12.06.800:Airspace Bases:FL65
;N864 A FL155-FL195
N054.15.04.977:W003.16.33.500:Airspace Bases:FL155
N053.47.27.307:W003.11.51.372:Airspace Bases:FL155
;N864 A FL55-FL105
N053.06.52.649:W003.20.17.536:Airspace Bases:FL55
N053.10.47.467:W003.18.59.731:Airspace Bases:FL55
;N864 A 3000-FL195
N053.09.47.308:W003.01.46.818:Airspace Bases:3000
;N864 A 4500-FL195
N053.02.51.945:W003.07.55.009:Airspace Bases:4500
;N864 A FL65-FL195
N052.56.08.120:W003.10.13.081:Airspace Bases:FL65
;N864 A FL85-FL195
N052.51.02.366:W003.10.59.104:Airspace Bases:FL85
;N864 A FL105-FL195
N052.45.45.075:W003.11.26.719:Airspace Bases:FL105
;N864/N42/N862 A FL145-FL195
N052.23.30.018:W003.02.39.745:Airspace Bases:FL145
;N864 A FL125-FL195
N052.03.04.119:W003.14.44.622:Airspace Bases:FL125
;N864 A FL95-FL195
N051.55.29.816:W003.14.44.622:Airspace Bases:FL95
;N864 A FL75-FL195
N051.51.03.003:W003.15.07.634:Airspace Bases:FL75
;N864 A 5500-FL195
N051.43.14.277:W003.15.42.151:Airspace Bases:5500
;N864 A FL55-FL195
N050.45.47.339:W003.26.26.486:Airspace Bases:FL55
;N42/N862 A FL95-FL195
N052.53.48.354:W002.53.49.101:Airspace Bases:FL95
;N42/N862 A FL125-FL195
N052.45.20.688:W002.54.25.920:Airspace Bases:FL125
;N862 FL105-FL195
N051.51.58.930:W002.57.57.630:Airspace Bases:FL105
;N862/N90/Y91 A FL105-FL195
N050.48.11.243:W003.08.09.748:Airspace Bases:FL105
N050.13.05.582:W003.01.15.533:Airspace Bases:FL105
;N862 A FL85-FL195
N050.12.00.682:W003.20.14.625:Airspace Bases:FL85
;L18 C FL55-FL245
N053.03.31.016:W005.25.39.532:Airspace Bases:FL55
;L18 C FL85-FL245
N052.53.18.067:W005.11.28.090:Airspace Bases:FL85
;L18 C FL145-FL245
N052.43.05.118:W004.53.26.528:Airspace Bases:FL145
;L18 C FL195-FL245
N052.32.23.324:W004.34.04.425:Airspace Bases:FL195
;N14 A FL105-FL195
N051.39.39.686:W001.40.10.626:Airspace Bases:FL105
;N14 A FL125-FL195
N051.42.38.523:W002.00.07.248:Airspace Bases:FL125
;N14 A FL155-FL195
N051.46.46.587:W002.20.40.688:Airspace Bases:FL155
;N14 C FL195-FL245
N051.49.56.962:W002.40.46.514:Airspace Bases:FL195
;Q41 A FL35-FL195
N050.22.56.077:W001.45.14.384:Airspace Bases:FL35
;Q41 A FL65-FL195
N050.59.02.167:W001.35.15.383:Airspace Bases:FL65
N051.08.43.676:W001.28.15.645:Airspace Bases:FL65
N051.17.25.187:W001.15.29.807:Airspace Bases:FL65
N051.18.48.260:W001.25.11.549:Airspace Bases:FL65
;N514 A FL155-FL195
N050.45.02.210:W002.22.01.000:Airspace Bases:FL155
;N514 A 5500-FL195
N050.52.11.419:W001.13.17.258:Airspace Bases:5500
;N866/N621 A FL165-FL195
N050.34.16.090:W002.01.53.333:Airspace Bases:FL165
;L620 A FL135-FL195
N050.50.52.962:W002.08.01.524:Airspace Bases:FL135
;L620 A FL95-FL195
N050.55.02.180:W001.49.36.950:Airspace Bases:FL95
;P87/L980/M185 A FL105-FL195
N050.29.11.490:W001.23.06.364:Airspace Bases:FL105
;N867/P87/N863 FL125-FL195
N050.16.34.606:W001.09.43.708:Airspace Bases:FL125
;M189 A FL75-FL195
N050.05.16.180:W000.16.42.536:Airspace Bases:FL75
;L151/N859 A FL65-FL195
N050.42.43.756:W000.36.28.111:Airspace Bases:FL65
;L151/N859 A FL85-FL195
N050.29.20.721:W000.21.00.269:Airspace Bases:FL85

