;Southern CTA 1 Class C FL195-FL245
Southern CTA                N052.26.32.000 W000.37.02.000 N052.26.17.000 E000.10.03.000
Southern CTA                N052.26.17.000 E000.10.03.000 N052.11.04.000 E000.09.42.000
Southern CTA                N052.11.04.000 E000.09.42.000 N052.11.04.000 E000.32.42.000
Southern CTA                N052.11.04.000 E000.32.42.000 N052.12.45.000 E000.53.22.000
Southern CTA                N052.12.45.000 E000.53.22.000 N052.25.11.000 E001.28.17.000
Southern CTA                N052.25.11.000 E001.28.17.000 N052.23.19.000 E002.42.37.000
Southern CTA                N052.23.19.000 E002.42.37.000 N051.30.00.000 E002.00.00.000
Southern CTA                N051.30.00.000 E002.00.00.000 N051.07.00.000 E002.00.00.000
Southern CTA                N051.07.00.000 E002.00.00.000 N051.00.00.000 E001.28.00.000
Southern CTA                N051.00.00.000 E001.28.00.000 N050.40.00.000 E001.28.00.000
Southern CTA                N050.40.00.000 E001.28.00.000 N050.03.20.000 W000.06.39.000
Southern CTA                N050.03.20.000 W000.06.39.000 N050.10.27.000 W000.11.43.000
Southern CTA                N050.10.27.000 W000.11.43.000 N050.13.47.000 W000.15.11.000
Southern CTA                N050.13.47.000 W000.15.11.000 N050.17.17.000 W000.10.53.000
Southern CTA                N050.17.17.000 W000.10.53.000 N050.26.05.000 W000.07.46.000
Southern CTA                N050.26.05.000 W000.07.46.000 N050.57.39.000 W000.41.04.000
Southern CTA                N050.57.39.000 W000.41.04.000 N050.57.28.000 W000.42.24.000
Southern CTA                N050.57.28.000 W000.42.24.000 N051.06.52.000 W000.48.29.000
Southern CTA                N051.06.52.000 W000.48.29.000 N051.03.29.000 W001.13.12.000
Southern CTA                N051.03.29.000 W001.13.12.000 N051.23.48.000 W001.08.22.000
Southern CTA                N051.23.48.000 W001.08.22.000 N051.24.35.000 W001.14.44.000
Southern CTA                N051.24.35.000 W001.14.44.000 N051.34.23.000 W001.11.38.000
Southern CTA                N051.34.23.000 W001.11.38.000 N051.44.20.000 W001.00.41.000
Southern CTA                N051.44.20.000 W001.00.41.000 N051.57.45.000 W001.11.26.000
Southern CTA                N051.57.45.000 W001.11.26.000 N052.04.21.000 W000.37.12.000
Southern CTA                N052.04.21.000 W000.37.12.000 N052.03.16.000 W000.34.41.000
Southern CTA                N052.03.16.000 W000.34.41.000 N052.11.26.000 W000.22.20.000
Southern CTA                N052.11.26.000 W000.22.20.000 N052.26.32.000 W000.37.02.000

;Southern CTA 2 Class C FL205-FL245
Southern CTA                N052.26.17.000 E000.10.03.000 N052.25.11.000 E001.28.17.000
Southern CTA                N052.25.11.000 E001.28.17.000 N052.12.45.000 E000.53.22.000
Southern CTA                N052.12.45.000 E000.53.22.000 N052.11.04.000 E000.32.42.000
Southern CTA                N052.11.04.000 E000.32.42.000 N052.11.04.000 E000.09.42.000
Southern CTA                N052.11.04.000 E000.09.42.000 N052.26.17.000 E000.10.03.000

;Southern CTA 3 Class C FL215-FL245
Southern CTA                N052.34.12.000 E001.54.10.000 N052.28.42.000 E002.34.14.000
Southern CTA                N052.28.42.000 E002.34.14.000 N052.28.19.000 E002.46.44.000
Southern CTA                N052.28.19.000 E002.46.44.000 N052.23.19.000 E002.42.37.000
Southern CTA                N052.23.19.000 E002.42.37.000 N052.25.11.000 E001.28.17.000
Southern CTA                N052.25.11.000 E001.28.17.000 N052.34.12.000 E001.54.10.000