;Holding Points
S1 N051.27.45.923 W000.26.05.060 standHold
NESSY (S1N) N051.27.47.188 W000.26.14.650 standHold
TULLA (S1S) N051.27.41.796 W000.26.08.747 standHold
;Stands
"429" N051.27.44.537 W000.26.27.465 standHold
"430" N051.27.40.731 W000.26.24.594 standHold
"431" N051.27.40.787 W000.26.20.475 standHold
"432" N051.27.40.746 W000.26.16.627 standHold