;Holding Points
A1 N051.28.36.767 W000.25.56.010 standHold
A10E N051.28.34.705 W000.28.3.981 standHold
A10W N051.28.34.518 W000.28.16.968 standHold
A11 N051.28.34.251 W000.28.28.467 standHold
A12 N051.28.34.466 W000.28.57.652 standHold
A13 N051.28.34.499 W000.29.22.173 standHold
A2 N051.28.33.415 W000.26.1.064 standHold
A3 N051.28.35.137 W000.26.8.467 standHold
A4 N051.28.35.137 W000.26.13.482 standHold
A5 N051.28.35.161 W000.26.30.199 standHold
A6 N051.28.35.042 W000.26.55.315 standHold
A7 N051.28.34.890 W000.27.08.977 standHold
A8 N051.28.34.821 W000.27.19.477 standHold
A9E N051.28.34.669 W000.27.32.087 standHold
A9W N051.28.34.872 W000.27.42.439 standHold
AE2 N051.28.01.642 W000.26.07.465 standHold
AW2 N051.28.0.998 W000.26.14.196 standHold
AY1 N051.28.32.680 W000.25.50.394 standHold
AY3 N051.28.30.303 W000.26.11.750 standHold
AY4 N051.28.31.787 W000.26.12.821 standHold
AY5 N051.28.32.218 W000.26.36.887 standHold
AY10 N051.28.31.590 W000.28.03.276 standHold
C1 N051.28.05.185 W000.28.42.878 standHold
C2 N051.28.26.513 W000.28.43.508 standHold
D1 N051.28.05.360 W000.28.25.259 standHold
D2 N051.28.26.584 W000.28.25.114 standHold
E1 N051.28.04.177 W000.28.04.300 standHold
E2 N051.28.26.644 W000.28.08.124 standHold
F1 N051.28.04.133 W000.27.55.018 standHold
F2 N051.28.26.985 W000.28.02.577 standHold
K1 N051.28.4.602 W000.26.41.664 standHold
L1 N051.28.04.662 W000.26.22.431 standHold
L2 N051.28.28.492 W000.26.22.549 standHold
M1 N051.28.31.219 W000.25.44.632 standHold
N1 N051.27.58.082 W000.26.5.961 standHold
N10 N051.27.57.353 W000.29.2.069 standHold
N11 N051.27.57.259 W000.29.12.966 standHold
N2E N051.27.58.082 W000.26.12.122 standHold
N2W N051.27.57.964 W000.26.20.483 standHold
N3 N051.27.57.688 W000.26.28.026 standHold
N4E N051.27.58.073 W000.26.54.561 standHold
N4W N051.27.57.941 W000.27.7.696 standHold
N5E N051.27.57.566 W000.27.19.955 standHold
N5W N051.27.57.792 W000.27.36.832 standHold
N6 N051.27.57.293 W000.28.09.556 standHold
N7 N051.27.57.214 W000.28.27.181 standHold
N8 N051.27.57.353 W000.28.53.113 standHold
S11 N051.27.47.594 W000.29.10.451 standHold
S3 N051.27.48.629 W000.26.26.741 standHold
S4E N051.27.49.023 W000.26.52.152 standHold
S4W N051.27.48.738 W000.27.06.495 standHold
S5E N051.27.49.308 W000.27.18.754 standHold
S5W N051.27.49.193 W000.27.28.698 standHold
S6 N051.27.48.754 W000.28.00.780 standHold
S7 N051.27.48.653 W000.28.24.287 standHold
SB7 N051.27.49.775 W000.28.32.365 standHold
SY6 N051.27.48.860 W000.28.07.746 standHold
;Heathrow Bollards
COBRA N051.28.28.032 W000.29.09.881 standHold
DASSO N051.28.03.762 W000.29.08.882 standHold
DINGO N051.28.27.697 W000.28.55.783 standHold
HANLI N051.28.03.603 W000.29.18.740 standHold
HORKA N051.28.00.603 W000.28.51.034 standHold
LOKKI N051.28.04.071 W000.26.30.729 standHold
LOMAN N051.28.00.722 W000.26.30.541 standHold
MORRA N051.28.11.039 W000.26.06.433 standHold
NEVIS N051.28.11.039 W000.26.18.062 standHold
OSTER N051.28.03.727 W000.28.51.084 standHold
PLUTO N051.28.34.938 W000.26.19.506 standHold
RABIT N051.28.30.650 W000.28.47.321 standHold
SATUN N051.28.20.449 W000.26.06.297 standHold
SNAPA N051.28.33.753 W000.28.47.007 standHold
TITAN N051.28.26.370 W000.26.12.000 standHold
VIKAS N051.28.05.040 W000.28.58.615 standHold
;Terminals 1 and 2
"101" N051.28.28.667 W000.27.08.098 8421631
"102" N051.28.25.317 W000.26.59.948 8421631
"103" N051.28.28.670 W000.27.05.320 standHold
"104" N051.28.26.121 W000.26.57.969 standHold
"105" N051.28.28.554 W000.27.02.932 standHold
"106" N051.28.26.841 W000.26.56.276 standHold
"108" N051.28.27.643 W000.26.54.355 8421631
"109" N051.28.29.185 W000.27.00.645 8421631
"110" N051.28.28.512 W000.26.52.617 8421631
"117" N051.28.22.929 W000.26.54.755 standHold
"119" N051.28.23.880 W000.26.52.927 standHold
"120" N051.28.20.952 W000.26.47.900 standHold
"121" N051.28.24.215 W000.26.49.773 standHold
"L" N051.28.24.560 W000.26.48.469 standHold
"R" N051.28.23.652 W000.26.50.121 standHold
"122" N051.28.18.254 W000.26.48.794 standHold
"139" N051.28.17.041 W000.26.42.969 standHold
"141" N051.28.19.058 W000.26.40.489 standHold
"174" N051.28.28.650 W000.27.10.730 8421631
"176" N051.28.28.620 W000.27.13.101 8421631
"178" N051.28.28.630 W000.27.15.440 8421631
"180" N051.28.28.611 W000.27.17.448 8421631
"182" N051.28.28.620 W000.27.19.820 8421631
"184" N051.28.28.594 W000.27.22.024 8421631
"186" N051.28.28.600 W000.27.24.150 8421631
"188" N051.28.28.637 W000.27.26.525 8421631
"192" N051.28.27.780 W000.27.31.329 8421631
"216" N051.28.12.908 W000.26.49.316 standHold
"217" N051.28.11.551 W000.26.49.157 standHold
"218" N051.28.09.651 W000.26.49.063 standHold
"L" N051.28.08.743 W000.26.49.205 standHold
"R" N051.28.10.295 W000.26.50.355 standHold
"219" N051.28.06.448 W000.26.48.998 standHold
"220" N051.28.05.144 W000.26.49.048 standHold
"221" N051.28.05.853 W000.26.55.511 standHold
"L" N051.28.05.869 W000.26.57.352 standHold
"R" N051.28.06.692 W000.26.54.423 standHold
"223" N051.28.05.748 W000.26.59.176 standHold
"224" N051.28.05.663 W000.27.01.606 standHold
"225" N051.28.05.644 W000.27.04.154 standHold
"226" N051.28.05.607 W000.27.06.551 standHold
"231" N051.28.26.949 W000.26.38.269 standHold
"232" N051.28.24.313 W000.26.38.298 standHold
"233" N051.28.21.676 W000.26.38.361 standHold
"L" N051.28.22.378 W000.26.38.655 standHold
"R" N051.28.20.896 W000.26.37.565 standHold
"236" N051.28.12.314 W000.26.39.044 standHold
"L" N051.28.13.012 W000.26.39.122 standHold
"R" N051.28.11.570 W000.26.38.326 standHold
"238" N051.28.09.459 W000.26.38.945 standHold
"239" N051.28.06.758 W000.26.38.945 standHold
"241" N051.28.06.634 W000.26.30.774 standHold
"242" N051.28.09.609 W000.26.30.798 standHold
"243" N051.28.12.223 W000.26.30.834 standHold
"R" N051.28.12.956 W000.26.32.046 standHold
"L" N051.28.11.404 W000.26.30.985 standHold
"244" N051.28.15.159 W000.26.30.861 standHold
"246" N051.28.18.469 W000.26.30.841 standHold
"R" N051.28.19.137 W000.26.32.070 standHold
"L" N051.28.17.502 W000.26.31.250 standHold
"247" N051.28.21.604 W000.26.30.797 standHold
"R" N051.28.22.213 W000.26.31.870 standHold
"L" N051.28.20.550 W000.26.31.162 standHold
"248" N051.28.24.335 W000.26.30.977 standHold
"249" N051.28.26.995 W000.26.30.924 standHold
"251" N051.28.07.513 W000.26.21.039 standHold
"252" N051.28.09.695 W000.26.20.982 standHold
"253" N051.28.12.280 W000.26.20.987 standHold
"L" N051.28.13.012 W000.26.21.079 standHold
"R" N051.28.11.681 W000.26.20.371 standHold
"254" N051.28.15.097 W000.26.21.051 standHold
"L" N051.28.15.950 W000.26.20.991 standHold
"R" N051.28.14.411 W000.26.20.392 standHold
"255" N051.28.18.250 W000.26.20.957 standHold
"L" N051.28.19.054 W000.26.21.079 standHold
"R" N051.28.17.557 W000.26.20.460 standHold
"256" N051.28.21.325 W000.26.21.044 standHold
"257" N051.28.23.792 W000.26.21.077 standHold
"258" N051.28.26.732 W000.26.21.002 standHold
"L" N051.28.27.590 W000.26.20.637 standHold
"R" N051.28.25.983 W000.26.20.548 standHold
"701" N051.28.25.039 W000.25.53.420 standHold
"702" N051.28.26.661 W000.25.50.346 standHold
;Terminal 3
"301" N051.28.05.776 W000.27.15.820 standHold
"303" N051.28.05.776 W000.27.20.520 standHold
"305" N051.28.05.776 W000.27.25.231 standHold
"307" N051.28.05.776 W000.27.29.850 standHold
"309" N051.28.08.078 W000.27.34.290 standHold
"311" N051.28.09.299 W000.27.35.635 standHold
"313" N051.28.06.417 W000.27.41.054 standHold
"316" N051.28.06.043 W000.27.48.955 standHold
"317" N051.28.07.889 W000.27.51.164 standHold
"318" N051.28.11.524 W000.27.46.454 standHold
"319" N051.28.09.967 W000.27.53.558 standHold
"320" N051.28.13.679 W000.27.48.842 standHold
"321" N051.28.12.044 W000.27.55.952 standHold
"322" N051.28.15.775 W000.27.50.944 standHold
"323" N051.28.13.903 W000.27.39.309 standHold
"325" N051.28.15.838 W000.27.41.404 standHold
"326" N051.28.23.008 W000.27.40.484 standHold
"327" N051.28.17.540 W000.27.43.570 standHold
"328" N051.28.24.509 W000.27.42.694 standHold
"329" N051.28.19.532 W000.27.45.670 standHold
"330" N051.28.26.355 W000.27.44.903 standHold
"331" N051.28.21.369 W000.27.47.298 standHold
"332" N051.28.27.780 W000.27.45.600 standHold
"334" N051.28.27.780 W000.27.50.340 standHold
"335" N051.28.22.874 W000.27.51.155 standHold
"336" N051.28.27.780 W000.27.54.380 standHold
"340" N051.28.25.778 W000.27.58.346 standHold
"342" N051.28.23.008 W000.27.58.530 standHold
"351" N051.28.24.660 W000.27.35.090 standHold
"352" N051.28.25.700 W000.27.36.240 8421631
"353" N051.28.26.380 W000.27.34.980 standHold
"354" N051.28.26.790 W000.27.37.430 8421631
"355" N051.28.27.410 W000.27.38.220 standHold
"363" N051.28.14.006 W000.27.57.794 standHold
"364" N051.28.17.810 W000.27.53.141 standHold
"365" N051.28.16.437 W000.27.57.996 standHold
;Terminal 4
"401" N051.27.29.073 W000.26.54.858 standHold
"402" N051.27.27.858 W000.26.58.089 standHold
"403" N051.27.26.912 W000.27.00.993 standHold
"405" N051.27.31.205 W000.27.04.247 standHold
"406" N051.27.33.210 W000.27.01.496 standHold
"407" N051.27.35.021 W000.26.59.080 standHold
"408" N051.27.36.919 W000.26.56.261 standHold
"409" N051.27.38.950 W000.26.53.636 standHold
"410" N051.27.40.694 W000.26.50.792 standHold
"411" N051.27.42.580 W000.26.48.101 standHold
"412" N051.27.44.460 W000.26.45.597 standHold
"414" N051.27.45.058 W000.26.36.932 standHold
"415" N051.27.43.010 W000.26.36.570 standHold
"416" N051.27.43.070 W000.26.38.871 standHold
"417" N051.27.41.780 W000.26.37.420 standHold
"419" N051.27.40.749 W000.26.40.016 standHold
"420" N051.27.39.642 W000.26.40.574 standHold
"421" N051.27.37.957 W000.26.41.736 standHold
"422" N051.27.36.151 W000.26.34.591 standHold
"423" N051.27.38.380 W000.26.33.009 standHold
"424" N051.27.40.573 W000.26.31.611 standHold
"425" N051.27.42.680 W000.26.30.158 standHold
"440" N051.27.38.519 W000.27.06.130 standHold
"441" N051.27.40.226 W000.27.03.528 standHold
"449" N051.27.29.744 W000.27.16.596 standHold
"450" N051.27.30.885 W000.27.16.522 standHold
"451" N051.27.32.206 W000.27.16.523 standHold
"452" N051.27.33.347 W000.27.16.449 standHold
"453" N051.27.35.222 W000.27.16.382 standHold
"454" N051.27.38.289 W000.27.16.890 standHold
"455" N051.27.40.265 W000.27.19.175 standHold
"456" N051.27.42.252 W000.27.21.168 standHold
"461" N051.27.27.816 W000.27.08.868 standHold
"RS" N051.27.44.796 W000.27.22.938 standHold
"601" N051.27.45.062 W000.27.30.822 standHold
"602" N051.27.45.062 W000.27.34.594 standHold
"603" N051.27.45.062 W000.27.38.463 standHold
"604" N051.27.45.062 W000.27.42.236 standHold
"605" N051.27.45.062 W000.27.46.201 standHold
"606" N051.27.45.062 W000.27.49.974 standHold
"607" N051.27.44.698 W000.27.54.133 standHold
"608" N051.27.44.759 W000.27.57.905 standHold
"609" N051.27.44.759 W000.28.1.774 standHold
"611" N051.27.41.439 W000.28.18.094 standHold
"612" N051.27.39.663 W000.28.18.027 standHold
"613" N051.27.37.362 W000.28.18.188 standHold
"614" N051.27.36.886 W000.28.25.140 standHold
"615" N051.27.40.185 W000.28.25.463 standHold
"616" N051.27.43.171 W000.28.25.140 standHold
;Terminal 5
"501" N051.28.27.700 W000.29.22.330 standHold
"502" N051.28.26.520 W000.29.20.100 standHold
"503" N051.28.26.582 W000.29.17.569 standHold
"505" N051.28.26.520 W000.29.15.290 standHold
"506" N051.28.26.360 W000.29.09.650 standHold
"507" N051.28.24.970 W000.29.09.650 standHold
"508" N051.28.23.360 W000.29.09.650 standHold
"509" N051.28.21.750 W000.29.09.650 standHold
"511" N051.28.20.350 W000.29.09.650 standHold
"512" N051.28.18.740 W000.29.09.650 standHold
"513" N051.28.16.810 W000.29.09.650 standHold
"514" N051.28.16.560 W000.29.09.650 standHold
"515" N051.28.16.120 W000.29.09.650 standHold
"516" N051.28.14.160 W000.29.09.650 standHold
"517" N051.28.13.730 W000.29.09.650 standHold
"518" N051.28.11.750 W000.29.09.650 standHold
"519" N051.28.09.463 W000.29.08.947 standHold
"520" N051.28.09.410 W000.29.11.330 standHold
"521" N051.28.09.468 W000.29.14.045 standHold
"522" N051.28.09.410 W000.29.16.360 standHold
"523" N051.28.09.402 W000.29.19.078 standHold
"524" N051.28.05.900 W000.29.19.390 standHold
"525" N051.28.05.851 W000.29.17.428 standHold
"526" N051.28.05.920 W000.29.12.540 standHold
"527" N051.28.05.959 W000.29.10.451 standHold
"531" N051.28.25.690 W000.28.55.740 standHold
"532" N051.28.23.300 W000.28.55.720 standHold
"533" N051.28.20.900 W000.28.55.700 standHold
"534" N051.28.18.510 W000.28.55.680 standHold
"535" N051.28.16.110 W000.28.55.660 standHold
"536" N051.28.13.720 W000.28.55.630 standHold
"537" N051.28.11.320 W000.28.55.610 standHold
"538" N051.28.08.930 W000.28.55.590 standHold
"539" N051.28.06.540 W000.28.55.570 standHold
"541" N051.28.06.480 W000.28.48.460 standHold
"542" N051.28.08.880 W000.28.48.480 standHold
"543" N051.28.11.270 W000.28.48.480 standHold
"544" N051.28.13.780 W000.28.48.480 standHold
"545" N051.28.16.420 W000.28.48.480 standHold
"546" N051.28.19.910 W000.28.48.480 standHold
"547" N051.28.23.000 W000.28.48.480 standHold
"548" N051.28.25.200 W000.28.48.480 standHold
"551" N051.28.06.600 W000.28.37.540 standHold
"552" N051.28.09.000 W000.28.37.560 standHold
"553" N051.28.11.390 W000.28.37.580 standHold
"554" N051.28.13.780 W000.28.37.600 standHold
"555" N051.28.16.420 W000.28.37.630 standHold
"556" N051.28.19.910 W000.28.37.660 standHold
"557" N051.28.23.000 W000.28.37.550 standHold
"558" N051.28.25.200 W000.28.37.630 standHold
"561" N051.28.26.400 W000.28.29.780 standHold
"562" N051.28.23.280 W000.28.29.780 standHold
"563" N051.28.19.962 W000.28.29.887 standHold
"564" N051.28.16.645 W000.28.29.887 standHold
"565" N051.28.13.328 W000.28.29.887 standHold
"566" N051.28.11.050 W000.28.29.780 standHold
"567" N051.28.08.940 W000.28.29.780 standHold
"568" N051.28.06.550 W000.28.29.780 standHold
"572" N051.28.22.206 W000.28.20.023 standHold
"573" N051.28.19.580 W000.28.19.920 standHold
"575" N051.28.13.477 W000.28.20.252 standHold
"576" N051.28.09.770 W000.28.19.920 standHold
"581" N051.28.05.594 W000.28.19.274 standHold
"582" N051.28.05.541 W000.28.15.882 standHold
"583" N051.28.05.523 W000.28.11.486 standHold
"590" N051.28.08.840 W000.28.11.782 standHold
"591" N051.28.11.598 W000.28.11.662 standHold
"592" N051.28.13.775 W000.28.11.765 standHold
"594" N051.28.19.558 W000.28.12.097 standHold
"595" N051.28.22.424 W000.28.12.170 standHold
"596" N051.28.25.351 W000.28.12.156 standHold