;EGD121
EGD121     N051.23.26.999 W002.58.05.002 N051.24.56.002 W002.57.38.999
EGD121     N051.24.56.002 W002.57.38.999 N051.26.06.000 W002.54.06.998
EGD121     N051.26.06.000 W002.54.06.998 N051.24.56.999 W002.53.11.000
EGD121     N051.24.56.999 W002.53.11.000 N051.24.31.921 W002.53.35.959
EGD121     N051.24.31.921 W002.53.35.959 N051.23.07.980 W002.58.14.009
EGD121     N051.23.07.980 W002.58.14.009 N051.23.26.999 W002.58.05.002