;EGD323A
EGD323A    N055.17.10.000 E000.14.28.000 N055.07.19.999 E000.55.08.000
EGD323A    N055.07.19.999 E000.55.08.000 N054.27.07.999 W000.15.45.000
EGD323A    N054.27.07.999 W000.15.45.000 N054.33.15.998 W000.21.06.001
EGD323A    N054.33.15.998 W000.21.06.001 N054.54.41.000 W000.45.45.000
EGD323A    N054.54.41.000 W000.45.45.000 N054.57.44.000 W000.54.57.000
EGD323A    N054.57.44.000 W000.54.57.000 N055.17.10.000 E000.14.28.000
;EGD323B
EGD323B    N055.07.19.999 E000.55.08.000 N054.42.15.001 E002.33.37.001
EGD323B    N054.42.15.001 E002.33.37.001 N053.38.03.998 E000.38.03.998
EGD323B    N053.38.03.998 E000.38.03.998 N053.38.37.000 E000.30.22.000
EGD323B    N053.38.37.000 E000.30.22.000 N053.41.53.002 E000.22.45.001
EGD323B    N053.41.53.002 E000.22.45.001 N054.27.07.999 W000.15.45.000
EGD323B    N054.27.07.999 W000.15.45.000 N055.07.19.999 E000.55.08.000
;EGD323C
EGD323C    N054.42.15.001 E002.33.37.001 N054.39.47.002 E002.42.51.998
EGD323C    N054.39.47.002 E002.42.51.998 N054.31.43.000 E002.54.33.998
EGD323C    N054.31.43.000 E002.54.33.998 N054.17.33.000 E003.01.12.000
EGD323C    N054.17.33.000 E003.01.12.000 N053.55.35.000 E002.57.14.000
EGD323C    N053.55.35.000 E002.57.14.000 N053.28.07.000 E002.42.41.000
EGD323C    N053.28.07.000 E002.42.41.000 N053.38.03.998 E000.38.03.998
EGD323C    N053.38.03.998 E000.38.03.998 N054.42.15.001 E002.33.37.001
;EGD323D
EGD323D    N054.44.14.000 W000.45.45.000 N054.33.16.000 W000.21.06.000
EGD323D    N054.33.16.000 W000.21.06.000 N054.27.08.000 W000.15.45.000
EGD323D    N054.27.08.000 W000.15.45.000 N054.19.21.000 W000.29.05.000
EGD323D    N054.19.21.000 W000.29.05.000 N054.44.14.000 W000.45.45.000
;EGD323E
EGD323E    N054.27.07.999 W000.15.45.000 N053.41.53.002 E000.22.45.001
EGD323E    N053.41.53.002 E000.22.45.001 N053.48.59.000 E000.06.02.002
EGD323E    N053.48.59.000 E000.06.02.002 N054.19.21.000 W000.29.04.999
EGD323E    N054.19.21.000 W000.29.04.999 N054.27.07.999 W000.15.45.000
;EGD323F
EGD323F    N054.52.10.000 W001.08.15.000 N054.55.13.000 W001.03.43.000
EGD323F    N054.55.13.000 W001.03.43.000 N054.57.44.000 W000.54.57.000
EGD323F    N054.57.44.000 W000.54.57.000 N054.19.21.000 W000.29.05.000
EGD323F    N054.19.21.000 W000.29.05.000 N054.52.10.000 W001.08.15.000